{
  "events": [
    {
      "date": "2023-03-15",
      "time": "1430-1600 utc",
      "title": "Welcome to Plutus PBL 2023",
      "regLink": "https://us06web.zoom.us/meeting/register/tZErceCqpzMtG9XldfuPnBQEus5MBivl9OZe",
      "recordingLink": "https://www.youtube.com/live/2ACJlnUfVL4",
      "links": [],
      "description": "Meet your PPBL Team",
      "complete": true
    },
    {
      "date": "2023-03-16",
      "time": "1430-1600 utc",
      "title": "Wallet Security",
      "regLink": "https://us06web.zoom.us/meeting/register/tZErceCqpzMtG9XldfuPnBQEus5MBivl9OZe",
      "recordingLink": "https://www.youtube.com/live/2ACJlnUfVL4",
      "links": [
        "https://github.com/jefdaj/horcrux#developer-quickstart",
        "https://www.qubes-os.org/",
        "https://www.epicbrowser.com/",
        "https://www.youtube.com/watch?v=fqrAzBAi64c",
        "https://github.com/bitcoin/bips/tree/master/bip-0039"
      ],
      "description": "What are some tips for protecting your private keys?",
      "complete": true
    },
    {
      "date": "2023-03-17",
      "time": "1630-1800 utc",
      "title": "Smart Contract Gladiator",
      "regLink": "https://us06web.zoom.us/meeting/register/tZEud-2uqDMsE9K9jw8FDzrfDvHxmU7gKHdb",
      "recordingLink": "https://www.youtube.com/live/_L_W30E2KG4",
      "links": [""],
      "description": "Designing voting systems",
      "complete": true
    },
    {
      "date": "2023-03-22",
      "time": "1430-1600 utc",
      "title": "What is \"Plutus\"?",
      "regLink": "https://us06web.zoom.us/meeting/register/tZErceCqpzMtG9XldfuPnBQEus5MBivl9OZe",
      "recordingLink": "https://www.youtube.com/watch?v=wmLvRJM6x64",
      "links": ["https://nixos.wiki/wiki/Flakes"],
      "description": "Student Q&A + options for writing smart contracts",
      "complete": true
    },
    {
      "date": "2023-03-23",
      "time": "1430-1600 utc",
      "title": "Generating different CBOR for Plutus Core",
      "regLink": "https://us06web.zoom.us/meeting/register/tZErceCqpzMtG9XldfuPnBQEus5MBivl9OZe",
      "recordingLink": "https://www.youtube.com/watch?v=aRkuGj5RN60",
      "links": [""],
      "description": "Student Q&A + live demo",
      "complete": true
    },
    {
      "date": "2023-03-29",
      "time": "1430-1600 utc",
      "title": "Using Cardano CLI",
      "regLink": "https://us06web.zoom.us/meeting/register/tZErceCqpzMtG9XldfuPnBQEus5MBivl9OZe",
      "recordingLink": "",
      "links": [""],
      "description": "Student Q&A, demo + discussion"
    },
    {
      "date": "2023-03-30",
      "time": "1430-1600 utc",
      "title": "How do we create proof that you have mastered a learning target?",
      "regLink": "https://us06web.zoom.us/meeting/register/tZErceCqpzMtG9XldfuPnBQEus5MBivl9OZe",
      "recordingLink": "",
      "links": [""],
      "description": "Student Q&A + discussion"
    },
    {
      "date": "2023-03-31",
      "time": "1630-1800 utc",
      "title": "Smart Contract Gladiator",
      "regLink": "https://us06web.zoom.us/meeting/register/tZEud-2uqDMsE9K9jw8FDzrfDvHxmU7gKHdb",
      "recordingLink": "",
      "links": [""],
      "description": "Modular voting systems"
    },
    {
      "date": "2023-04-05",
      "time": "1430-1600 utc",
      "title": "Module 102 Mastery Assignments",
      "regLink": "https://us06web.zoom.us/meeting/register/tZErceCqpzMtG9XldfuPnBQEus5MBivl9OZe",
      "recordingLink": "",
      "links": [""],
      "description": "Student Q&A, live demo, and breakout rooms"
    },
    {
      "date": "2023-04-06",
      "time": "1430-1600 utc",
      "title": "Project Focus: The PPBL 2023 Contributor Token",
      "regLink": "https://us06web.zoom.us/meeting/register/tZErceCqpzMtG9XldfuPnBQEus5MBivl9OZe",
      "recordingLink": "",
      "links": [""],
      "description": "Student Q&A, demo + discussion"
    },
    {
      "date": "2023-04-07",
      "time": "1630-1800 utc",
      "title": "Smart Contract Gladiator",
      "regLink": "https://us06web.zoom.us/meeting/register/tZEud-2uqDMsE9K9jw8FDzrfDvHxmU7gKHdb",
      "recordingLink": "",
      "links": [""],
      "description": "Modular voting systems"
    }
  ]
}
